{
  "shell_port": 43793,
  "iopub_port": 46037,
  "stdin_port": 60893,
  "control_port": 54447,
  "hb_port": 44789,
  "ip": "127.0.0.1",
  "key": "a1971aae-1cda7c483e7cfdacfb8884da",
  "transport": "tcp",
  "signature_scheme": "hmac-sha256",
  "kernel_name": ""
}